<svg xmlns="http://www.w3.org/2000/svg" width="51.665" height="39.244" viewBox="0 0 51.665 39.244">
  <g id="Grupo_559" data-name="Grupo 559" transform="translate(0 39.244) rotate(-90)">
    <path id="Caminho_38" data-name="Caminho 38" d="M69.9,11V62.665H96.829l12.315-12.2V11Zm2.088,2.2H106.94V48.926H96.386a1.1,1.1,0,0,0-1.1,1.1V60.461h-23.3ZM97.493,58.932V51.014h7.918Z" transform="translate(-69.9 -11)" fill="#969696"/>
    <rect id="Retângulo_323" data-name="Retângulo 323" width="23.196" height="2.204" transform="translate(7.908 9.669)" fill="#969696"/>
    <rect id="Retângulo_324" data-name="Retângulo 324" width="23.196" height="2.204" transform="translate(7.908 19.021)" fill="#969696"/>
    <rect id="Retângulo_325" data-name="Retângulo 325" width="23.196" height="2.204" transform="translate(7.908 28.363)" fill="#969696"/>
  </g>
</svg>
