<svg id="Grupo_559" data-name="Grupo 559" xmlns="http://www.w3.org/2000/svg" width="39.244" height="51.665" viewBox="0 0 39.244 51.665">
  <path id="Caminho_38" data-name="Caminho 38" d="M0,51.665V0H26.929L39.244,12.2V51.665Zm2.088-2.2H37.04V13.739H26.486a1.1,1.1,0,0,1-1.1-1.1V2.2H2.088ZM27.593,3.732v7.918h7.918Z" fill="#969696"/>
  <rect id="Retângulo_323" data-name="Retângulo 323" width="23.196" height="2.204" transform="translate(7.908 39.792)" fill="#969696"/>
  <rect id="Retângulo_324" data-name="Retângulo 324" width="23.196" height="2.204" transform="translate(7.908 30.44)" fill="#969696"/>
  <rect id="Retângulo_325" data-name="Retângulo 325" width="23.196" height="2.204" transform="translate(7.908 21.098)" fill="#969696"/>
</svg>
